[{"line":1,"elements":[{"line":3,"name":"get all active users","description":"","id":"get-all-active-users","type":"scenario","keyword":"Scenario","steps":[{"name":"def query = {status:'active', gender: 'female', id:23}","result":{"duration":241600,"status":"passed"},"match":{"location":"karate","arguments":[]},"keyword":"*","line":4},{"name":"url baseUrl+'\/public\/v1\/users'","result":{"duration":273700,"status":"passed"},"match":{"location":"karate","arguments":[]},"keyword":"Given","line":5},{"name":"params query","result":{"duration":127600,"status":"passed"},"match":{"location":"karate","arguments":[]},"keyword":"And","line":6},{"name":"method GET","result":{"duration":953742200,"status":"passed"},"match":{"location":"karate","arguments":[]},"keyword":"When","line":7,"doc_string":{"content_type":"","value":"10:41:32.013 request:\n1 > GET https:\/\/gorest.co.in\/public\/v1\/users?status=active&gender=female&id=23\n1 > Accept-Encoding: gzip,deflate\n1 > Connection: Keep-Alive\n1 > Host: gorest.co.in\n1 > User-Agent: Apache-HttpClient\/4.5.12 (Java\/1.8.0_311)\n\n10:41:32.964 response time in milliseconds: 949.61\n1 < 200\n1 < Cache-Control: max-age=0, private, must-revalidate\n1 < Connection: keep-alive\n1 < Content-Type: application\/json; charset=utf-8\n1 < Date: Fri, 29 Apr 2022 14:41:32 GMT\n1 < ETag: W\/\"996e3e39561b73e0aaf72fec3fa2ca2d\"\n1 < Referrer-Policy: strict-origin-when-cross-origin\n1 < Server: nginx\n1 < Strict-Transport-Security: max-age=63072000; includeSubDomains\n1 < Transfer-Encoding: chunked\n1 < Vary: [Accept-Encoding, Origin]\n1 < X-Content-Type-Options: nosniff\n1 < X-Download-Options: noopen\n1 < X-Frame-Options: SAMEORIGIN\n1 < X-Permitted-Cross-Domain-Policies: none\n1 < X-Request-Id: 38b213c1-667d-440a-9f5b-fd9b59a354a3\n1 < X-Runtime: 0.005757\n1 < X-XSS-Protection: 0\n{\"meta\":{\"pagination\":{\"total\":0,\"pages\":0,\"page\":1,\"limit\":20,\"links\":{\"previous\":null,\"current\":null,\"next\":null}}},\"data\":[]}","line":7}},{"name":"status 200","result":{"duration":24600,"status":"passed"},"match":{"location":"karate","arguments":[]},"keyword":"Then","line":8},{"name":"print response","result":{"duration":1097900,"status":"passed"},"match":{"location":"karate","arguments":[]},"keyword":"*","line":9,"doc_string":{"content_type":"","value":"10:41:32.966 [print] {\n  \"data\": [\n  ],\n  \"meta\": {\n    \"pagination\": {\n      \"total\": 0,\n      \"pages\": 0,\n      \"limit\": 20,\n      \"links\": {\n        \"next\": null,\n        \"current\": null,\n        \"previous\": null\n      },\n      \"page\": 1\n    }\n  }\n}","line":9}}]},{"line":12,"name":"get all active users and get the count","description":"","id":"get-all-active-users-and-get-the-count","type":"scenario","keyword":"Scenario","steps":[{"name":"def query = {status:'active'}","result":{"duration":402700,"status":"passed"},"match":{"location":"karate","arguments":[]},"keyword":"*","line":13},{"name":"url baseUrl+'\/public\/v1\/users'","result":{"duration":2185000,"status":"passed"},"match":{"location":"karate","arguments":[]},"keyword":"Given","line":14},{"name":"params query","result":{"duration":529300,"status":"passed"},"match":{"location":"karate","arguments":[]},"keyword":"And","line":15},{"name":"method GET","result":{"duration":931471200,"status":"passed"},"match":{"location":"karate","arguments":[]},"keyword":"When","line":16,"doc_string":{"content_type":"","value":"10:41:32.997 request:\n1 > GET https:\/\/gorest.co.in\/public\/v1\/users?status=active\n1 > Accept-Encoding: gzip,deflate\n1 > Connection: Keep-Alive\n1 > Host: gorest.co.in\n1 > User-Agent: Apache-HttpClient\/4.5.12 (Java\/1.8.0_311)\n\n10:41:33.922 response time in milliseconds: 922.08\n1 < 200\n1 < Cache-Control: max-age=0, private, must-revalidate\n1 < Connection: keep-alive\n1 < Content-Type: application\/json; charset=utf-8\n1 < Date: Fri, 29 Apr 2022 14:41:33 GMT\n1 < ETag: W\/\"67bcee5f960ce12ab271d1e9fc916e54\"\n1 < Referrer-Policy: strict-origin-when-cross-origin\n1 < Server: nginx\n1 < Strict-Transport-Security: max-age=63072000; includeSubDomains\n1 < Transfer-Encoding: chunked\n1 < Vary: [Accept-Encoding, Origin]\n1 < X-Content-Type-Options: nosniff\n1 < X-Download-Options: noopen\n1 < X-Frame-Options: SAMEORIGIN\n1 < X-Permitted-Cross-Domain-Policies: none\n1 < X-Request-Id: 99ae2282-1e94-43c2-aa8f-ad344cd921d4\n1 < X-Runtime: 0.008368\n1 < X-XSS-Protection: 0\n{\"meta\":{\"pagination\":{\"total\":1077,\"pages\":54,\"page\":1,\"limit\":20,\"links\":{\"previous\":null,\"current\":\"https:\/\/gorest.co.in\/public\/v1\/users?page=1\",\"next\":\"https:\/\/gorest.co.in\/public\/v1\/users?page=2\"}}},\"data\":[{\"id\":2232,\"name\":\"Sunita Dhawan\",\"email\":\"sunita_dhawan@cruickshank.info\",\"gender\":\"female\",\"status\":\"active\"},{\"id\":2231,\"name\":\"Bhupen Ahuja\",\"email\":\"ahuja_bhupen@renner-parisian.biz\",\"gender\":\"male\",\"status\":\"active\"},{\"id\":2229,\"name\":\"Jagdeep Iyengar\",\"email\":\"iyengar_jagdeep@feil.io\",\"gender\":\"male\",\"status\":\"active\"},{\"id\":2228,\"name\":\"Rajendra Bhattathiri\",\"email\":\"rajendra_bhattathiri@leannon.info\",\"gender\":\"female\",\"status\":\"active\"},{\"id\":2226,\"name\":\"Ojaswini Bhat\",\"email\":\"bhat_ojaswini@davis-runolfsson.name\",\"gender\":\"female\",\"status\":\"active\"},{\"id\":2224,\"name\":\"Manik Varma\",\"email\":\"varma_manik@wyman-jerde.io\",\"gender\":\"female\",\"status\":\"active\"},{\"id\":2221,\"name\":\"Rohan Gandhi\",\"email\":\"rohan_gandhi@kiehn-bartell.org\",\"gender\":\"female\",\"status\":\"active\"},{\"id\":2220,\"name\":\"Chitramala Bhat\",\"email\":\"chitramala_bhat@ohara-heller.org\",\"gender\":\"male\",\"status\":\"active\"},{\"id\":2218,\"name\":\"Aaditya Nayar\",\"email\":\"nayar_aaditya@bernier-zboncak.com\",\"gender\":\"female\",\"status\":\"active\"},{\"id\":2213,\"name\":\"Aalok Malik\",\"email\":\"aalok_malik@cruickshank-jenkins.name\",\"gender\":\"male\",\"status\":\"active\"},{\"id\":2210,\"name\":\"Malti Bhat\",\"email\":\"malti_bhat@hilll-hermann.info\",\"gender\":\"male\",\"status\":\"active\"},{\"id\":2209,\"name\":\"Vasudeva Agarwal\",\"email\":\"agarwal_vasudeva@hermann.name\",\"gender\":\"female\",\"status\":\"active\"},{\"id\":2208,\"name\":\"Gorakhanatha Nambeesan\",\"email\":\"nambeesan_gorakhanatha@ratke-friesen.com\",\"gender\":\"female\",\"status\":\"active\"},{\"id\":2207,\"name\":\"Devdan Khanna\",\"email\":\"devdan_khanna@adams-hayes.co\",\"gender\":\"male\",\"status\":\"active\"},{\"id\":2205,\"name\":\"Sen. Ojaswini Mukhopadhyay\",\"email\":\"mukhopadhyay_ojaswini_sen@breitenberg.org\",\"gender\":\"female\",\"status\":\"active\"},{\"id\":2204,\"name\":\"Manikya Gupta CPA\",\"email\":\"gupta_cpa_manikya@schmitt-fisher.com\",\"gender\":\"male\",\"status\":\"active\"},{\"id\":2202,\"name\":\"Kali Chopra\",\"email\":\"chopra_kali@windler.co\",\"gender\":\"male\",\"status\":\"active\"},{\"id\":2200,\"name\":\"Ajeet Talwar\",\"email\":\"ajeet_talwar@zulauf.co\",\"gender\":\"female\",\"status\":\"active\"},{\"id\":2199,\"name\":\"Garuda Abbott\",\"email\":\"garuda_abbott@lemke.co\",\"gender\":\"male\",\"status\":\"active\"},{\"id\":2197,\"name\":\"Saraswati Mishra\",\"email\":\"mishra_saraswati@kunze.org\",\"gender\":\"male\",\"status\":\"active\"}]}","line":16}},{"name":"status 200","result":{"duration":29100,"status":"passed"},"match":{"location":"karate","arguments":[]},"keyword":"Then","line":17},{"name":"def jsonResponse = response","result":{"duration":47900,"status":"passed"},"match":{"location":"karate","arguments":[]},"keyword":"*","line":18},{"name":"print jsonResponse","result":{"duration":3399500,"status":"passed"},"match":{"location":"karate","arguments":[]},"keyword":"*","line":19,"doc_string":{"content_type":"","value":"10:41:33.929 [print] {\n  \"data\": [\n    {\n      \"gender\": \"female\",\n      \"name\": \"Sunita Dhawan\",\n      \"id\": 2232,\n      \"email\": \"sunita_dhawan@cruickshank.info\",\n      \"status\": \"active\"\n    },\n    {\n      \"gender\": \"male\",\n      \"name\": \"Bhupen Ahuja\",\n      \"id\": 2231,\n      \"email\": \"ahuja_bhupen@renner-parisian.biz\",\n      \"status\": \"active\"\n    },\n    {\n      \"gender\": \"male\",\n      \"name\": \"Jagdeep Iyengar\",\n      \"id\": 2229,\n      \"email\": \"iyengar_jagdeep@feil.io\",\n      \"status\": \"active\"\n    },\n    {\n      \"gender\": \"female\",\n      \"name\": \"Rajendra Bhattathiri\",\n      \"id\": 2228,\n      \"email\": \"rajendra_bhattathiri@leannon.info\",\n      \"status\": \"active\"\n    },\n    {\n      \"gender\": \"female\",\n      \"name\": \"Ojaswini Bhat\",\n      \"id\": 2226,\n      \"email\": \"bhat_ojaswini@davis-runolfsson.name\",\n      \"status\": \"active\"\n    },\n    {\n      \"gender\": \"female\",\n      \"name\": \"Manik Varma\",\n      \"id\": 2224,\n      \"email\": \"varma_manik@wyman-jerde.io\",\n      \"status\": \"active\"\n    },\n    {\n      \"gender\": \"female\",\n      \"name\": \"Rohan Gandhi\",\n      \"id\": 2221,\n      \"email\": \"rohan_gandhi@kiehn-bartell.org\",\n      \"status\": \"active\"\n    },\n    {\n      \"gender\": \"male\",\n      \"name\": \"Chitramala Bhat\",\n      \"id\": 2220,\n      \"email\": \"chitramala_bhat@ohara-heller.org\",\n      \"status\": \"active\"\n    },\n    {\n      \"gender\": \"female\",\n      \"name\": \"Aaditya Nayar\",\n      \"id\": 2218,\n      \"email\": \"nayar_aaditya@bernier-zboncak.com\",\n      \"status\": \"active\"\n    },\n    {\n      \"gender\": \"male\",\n      \"name\": \"Aalok Malik\",\n      \"id\": 2213,\n      \"email\": \"aalok_malik@cruickshank-jenkins.name\",\n      \"status\": \"active\"\n    },\n    {\n      \"gender\": \"male\",\n      \"name\": \"Malti Bhat\",\n      \"id\": 2210,\n      \"email\": \"malti_bhat@hilll-hermann.info\",\n      \"status\": \"active\"\n    },\n    {\n      \"gender\": \"female\",\n      \"name\": \"Vasudeva Agarwal\",\n      \"id\": 2209,\n      \"email\": \"agarwal_vasudeva@hermann.name\",\n      \"status\": \"active\"\n    },\n    {\n      \"gender\": \"female\",\n      \"name\": \"Gorakhanatha Nambeesan\",\n      \"id\": 2208,\n      \"email\": \"nambeesan_gorakhanatha@ratke-friesen.com\",\n      \"status\": \"active\"\n    },\n    {\n      \"gender\": \"male\",\n      \"name\": \"Devdan Khanna\",\n      \"id\": 2207,\n      \"email\": \"devdan_khanna@adams-hayes.co\",\n      \"status\": \"active\"\n    },\n    {\n      \"gender\": \"female\",\n      \"name\": \"Sen. Ojaswini Mukhopadhyay\",\n      \"id\": 2205,\n      \"email\": \"mukhopadhyay_ojaswini_sen@breitenberg.org\",\n      \"status\": \"active\"\n    },\n    {\n      \"gender\": \"male\",\n      \"name\": \"Manikya Gupta CPA\",\n      \"id\": 2204,\n      \"email\": \"gupta_cpa_manikya@schmitt-fisher.com\",\n      \"status\": \"active\"\n    },\n    {\n      \"gender\": \"male\",\n      \"name\": \"Kali Chopra\",\n      \"id\": 2202,\n      \"email\": \"chopra_kali@windler.co\",\n      \"status\": \"active\"\n    },\n    {\n      \"gender\": \"female\",\n      \"name\": \"Ajeet Talwar\",\n      \"id\": 2200,\n      \"email\": \"ajeet_talwar@zulauf.co\",\n      \"status\": \"active\"\n    },\n    {\n      \"gender\": \"male\",\n      \"name\": \"Garuda Abbott\",\n      \"id\": 2199,\n      \"email\": \"garuda_abbott@lemke.co\",\n      \"status\": \"active\"\n    },\n    {\n      \"gender\": \"male\",\n      \"name\": \"Saraswati Mishra\",\n      \"id\": 2197,\n      \"email\": \"mishra_saraswati@kunze.org\",\n      \"status\": \"active\"\n    }\n  ],\n  \"meta\": {\n    \"pagination\": {\n      \"total\": 1077,\n      \"pages\": 54,\n      \"limit\": 20,\n      \"links\": {\n        \"next\": \"https:\/\/gorest.co.in\/public\/v1\/users?page=2\",\n        \"current\": \"https:\/\/gorest.co.in\/public\/v1\/users?page=1\",\n        \"previous\": null\n      },\n      \"page\": 1\n    }\n  }\n}","line":19}},{"name":"def userCount = jsonResponse.data.length","result":{"duration":21747100,"status":"passed"},"match":{"location":"karate","arguments":[]},"keyword":"*","line":20},{"name":"print userCount","result":{"duration":330400,"status":"passed"},"match":{"location":"karate","arguments":[]},"keyword":"*","line":21,"doc_string":{"content_type":"","value":"10:41:33.952 [print] 20","line":21}},{"name":"match userCount == 20","result":{"duration":7396900,"status":"passed"},"match":{"location":"karate","arguments":[]},"keyword":"*","line":22}]}],"name":"src\/test\/java\/features\/getapiwithquery.feature","description":"GET API with Query Parameters","id":"get-api-with-query-parameters","keyword":"Feature","uri":"src\/test\/java\/features\/getapiwithquery.feature"}]